{
  "file_generated_by": "FlutterFire CLI",
  "purpose": "FirebaseAppID & ProjectID for this Firebase app in this directory",
  "GOOGLE_APP_ID": "1:1079085552775:ios:407bf2116c3ae29417d422",
  "FIREBASE_PROJECT_ID": "latihan-9c49c",
  "GCM_SENDER_ID": "1079085552775"
}